<?xml version="1.0" encoding="UTF-8" standalone="no"?>
<!-- Created with Inkscape (http://www.inkscape.org/) -->

<svg
   xmlns:dc="http://purl.org/dc/elements/1.1/"
   xmlns:cc="http://creativecommons.org/ns#"
   xmlns:rdf="http://www.w3.org/1999/02/22-rdf-syntax-ns#"
   xmlns:svg="http://www.w3.org/2000/svg"
   xmlns="http://www.w3.org/2000/svg"
   xmlns:xlink="http://www.w3.org/1999/xlink"
   xmlns:sodipodi="http://sodipodi.sourceforge.net/DTD/sodipodi-0.dtd"
   xmlns:inkscape="http://www.inkscape.org/namespaces/inkscape"
   width="48"
   height="48"
   viewBox="0 0 12.7 12.7"
   version="1.1"
   id="svg8"
   inkscape:version="0.92.4 5da689c313, 2019-01-14"
   sodipodi:docname="Bubblemail_icon.svg">
  <defs
     id="defs2">
    <linearGradient
       inkscape:collect="always"
       id="linearGradient1618">
      <stop
         style="stop-color:#cbceff;stop-opacity:1;"
         offset="0"
         id="stop1614" />
      <stop
         style="stop-color:#cbceff;stop-opacity:0;"
         offset="1"
         id="stop1616" />
    </linearGradient>
    <linearGradient
       inkscape:collect="always"
       id="linearGradient1235">
      <stop
         style="stop-color:#bcbcbc;stop-opacity:1;"
         offset="0"
         id="stop1231" />
      <stop
         style="stop-color:#bcbcbc;stop-opacity:0;"
         offset="1"
         id="stop1233" />
    </linearGradient>
    <linearGradient
       inkscape:collect="always"
       id="linearGradient1227">
      <stop
         style="stop-color:#ffffff;stop-opacity:1;"
         offset="0"
         id="stop1223" />
      <stop
         style="stop-color:#ffffff;stop-opacity:0;"
         offset="1"
         id="stop1225" />
    </linearGradient>
    <linearGradient
       inkscape:collect="always"
       id="linearGradient1069">
      <stop
         style="stop-color:#ffffff;stop-opacity:1;"
         offset="0"
         id="stop1065" />
      <stop
         style="stop-color:#ffffff;stop-opacity:0"
         offset="1"
         id="stop1067" />
    </linearGradient>
    <linearGradient
       inkscape:collect="always"
       id="linearGradient1041">
      <stop
         style="stop-color:#363636;stop-opacity:1;"
         offset="0"
         id="stop1037" />
      <stop
         style="stop-color:#363636;stop-opacity:0;"
         offset="1"
         id="stop1039" />
    </linearGradient>
    <linearGradient
       inkscape:collect="always"
       id="linearGradient912">
      <stop
         style="stop-color:#0015ff;stop-opacity:1"
         offset="0"
         id="stop908" />
      <stop
         style="stop-color:#fbfbff;stop-opacity:1"
         offset="1"
         id="stop910" />
    </linearGradient>
    <linearGradient
       inkscape:collect="always"
       xlink:href="#linearGradient912"
       id="linearGradient914"
       x1="7.1966667"
       y1="292.58148"
       x2="12.488333"
       y2="300.51895"
       gradientUnits="userSpaceOnUse"
       gradientTransform="translate(-4.5508333,-4.8418833)" />
    <linearGradient
       inkscape:collect="always"
       xlink:href="#linearGradient1041"
       id="linearGradient1045"
       gradientUnits="userSpaceOnUse"
       x1="7.6729164"
       y1="288.79791"
       x2="7.6729164"
       y2="286.40723" />
    <linearGradient
       inkscape:collect="always"
       xlink:href="#linearGradient1041"
       id="linearGradient1055"
       gradientUnits="userSpaceOnUse"
       x1="11.1125"
       y1="290.12082"
       x2="9.5249996"
       y2="286.94583" />
    <linearGradient
       inkscape:collect="always"
       xlink:href="#linearGradient1069"
       id="linearGradient1073"
       gradientUnits="userSpaceOnUse"
       x1="5.0270834"
       y1="287.21042"
       x2="7.1437497"
       y2="289.59167" />
    <linearGradient
       inkscape:collect="always"
       xlink:href="#linearGradient1227"
       id="linearGradient1229"
       x1="7.6729164"
       y1="286.94583"
       x2="7.6729164"
       y2="286.41666"
       gradientUnits="userSpaceOnUse" />
    <linearGradient
       inkscape:collect="always"
       xlink:href="#linearGradient1235"
       id="linearGradient1237"
       x1="2.165164"
       y1="292.85202"
       x2="8.7780809"
       y2="285.04648"
       gradientUnits="userSpaceOnUse" />
    <filter
       inkscape:collect="always"
       style="color-interpolation-filters:sRGB"
       id="filter1263"
       x="-0.046956504"
       width="1.093913"
       y="-0.083076978"
       height="1.166154">
      <feGaussianBlur
         inkscape:collect="always"
         stdDeviation="0.11906246"
         id="feGaussianBlur1265" />
    </filter>
    <filter
       inkscape:collect="always"
       style="color-interpolation-filters:sRGB"
       id="filter1299"
       x="-0.046800015"
       width="1.0936"
       y="-0.083571381"
       height="1.1671428">
      <feGaussianBlur
         inkscape:collect="always"
         stdDeviation="0.12898442"
         id="feGaussianBlur1301" />
    </filter>
    <filter
       inkscape:collect="always"
       style="color-interpolation-filters:sRGB"
       id="filter1339"
       x="-0.0702"
       width="1.1404"
       y="-0.234"
       height="1.468">
      <feGaussianBlur
         inkscape:collect="always"
         stdDeviation="0.15478125"
         id="feGaussianBlur1341" />
    </filter>
    <filter
       inkscape:collect="always"
       style="color-interpolation-filters:sRGB"
       id="filter1423"
       x="-0.071225786"
       width="1.1424516"
       y="-0.14720009"
       height="1.2944002">
      <feGaussianBlur
         inkscape:collect="always"
         stdDeviation="0.2434166"
         id="feGaussianBlur1425" />
    </filter>
    <filter
       inkscape:collect="always"
       style="color-interpolation-filters:sRGB"
       id="filter1459"
       x="-0.077089892"
       width="1.1541798"
       y="-0.12452998"
       height="1.24906">
      <feGaussianBlur
         inkscape:collect="always"
         stdDeviation="0.27457095"
         id="feGaussianBlur1461" />
    </filter>
    <linearGradient
       inkscape:collect="always"
       xlink:href="#linearGradient1618"
       id="linearGradient1620"
       x1="1.143378"
       y1="289.33655"
       x2="3.1541736"
       y2="289.34961"
       gradientUnits="userSpaceOnUse" />
    <filter
       inkscape:collect="always"
       style="color-interpolation-filters:sRGB"
       id="filter1658"
       x="-0.13567996"
       width="1.2713599"
       y="-0.038516279"
       height="1.0770326">
      <feGaussianBlur
         inkscape:collect="always"
         stdDeviation="0.18333959"
         id="feGaussianBlur1660" />
    </filter>
    <filter
       inkscape:collect="always"
       style="color-interpolation-filters:sRGB"
       id="filter1686"
       x="-0.046557985"
       width="1.093116"
       y="-0.049561744"
       height="1.0991235">
      <feGaussianBlur
         inkscape:collect="always"
         stdDeviation="0.16937891"
         id="feGaussianBlur1688" />
    </filter>
  </defs>
  <sodipodi:namedview
     id="base"
     pagecolor="#ffffff"
     bordercolor="#666666"
     borderopacity="1.0"
     inkscape:pageopacity="0.0"
     inkscape:pageshadow="2"
     inkscape:zoom="11.2"
     inkscape:cx="3.2796061"
     inkscape:cy="26.200842"
     inkscape:document-units="mm"
     inkscape:current-layer="layer1"
     showgrid="false"
     units="px"
     showguides="false">
    <inkscape:grid
       type="xygrid"
       id="grid819"
       units="px"
       spacingx="0.26458333"
       spacingy="0.26458333" />
  </sodipodi:namedview>
  <metadata
     id="metadata5">
    <rdf:RDF>
      <cc:Work
         rdf:about="">
        <dc:format>image/svg+xml</dc:format>
        <dc:type
           rdf:resource="http://purl.org/dc/dcmitype/StillImage" />
        <dc:title></dc:title>
      </cc:Work>
    </rdf:RDF>
  </metadata>
  <g
     inkscape:label="Layer 1"
     inkscape:groupmode="layer"
     id="layer1"
     transform="translate(0,-284.3)">
    <path
       style="opacity:1;fill:url(#linearGradient914);fill-opacity:1;fill-rule:evenodd;stroke:none;stroke-width:0.79374999;stroke-linecap:round;stroke-linejoin:miter;stroke-miterlimit:4;stroke-dasharray:none;stroke-opacity:1"
       d="m 2.778125,285.80812 c 0,0 -1.508125,0 -1.508125,1.50812 v 5.5298 c 0,1.50813 2.0108333,1.50813 2.0108333,1.50813 l -10e-8,1.50812 2.0108335,-1.50812 c 0,0 3.01625,-1e-5 4.524375,0 1.5081253,0 1.5081253,-1.75948 1.5081253,-1.75948 v -6.78657"
       id="path817-2"
       inkscape:connector-curvature="0"
       sodipodi:nodetypes="czzccczcc" />
    <path
       style="fill:none;fill-opacity:1;fill-rule:evenodd;stroke:url(#linearGradient1237);stroke-width:0.68344337;stroke-linecap:round;stroke-linejoin:round;stroke-miterlimit:4;stroke-dasharray:none;stroke-opacity:0.50900903;filter:url(#filter1686)"
       d="m 3.125684,286.64109 c 0,0 -1.0433032,-0.24112 -1.0433032,0.55263 l -0.049349,4.97696 c 0,1.30736 1.9357187,1.12515 1.9357187,1.12515 l -1e-7,1.32292 2.6458334,-1.32292 h 2.9104166 c 1.0583336,0 1.0583336,-1.05833 1.0583336,-1.05833"
       id="path817-14"
       inkscape:connector-curvature="0"
       sodipodi:nodetypes="czzccczc"
       transform="matrix(1.0154727,0,0,1,-0.16375267,0)" />
    <path
       style="fill:none;fill-opacity:1;fill-rule:evenodd;stroke:#000000;stroke-width:0.79374999;stroke-linecap:round;stroke-linejoin:round;stroke-miterlimit:4;stroke-dasharray:none;stroke-opacity:0.2745098;filter:url(#filter1423)"
       d="m 3.7041666,296.47083 2.9104167,-1.5875 c -0.4292888,-0.0162 3.4395837,0 3.7041667,0 0.264583,0 1.5875,-0.79375 1.5875,-1.85208 v -0.52917"
       id="path817-1"
       inkscape:connector-curvature="0"
       sodipodi:nodetypes="cczzc" />
    <g
       id="g887-8"
       transform="matrix(0.92857148,0,0,1,10.923512,2.6458333)"
       style="opacity:1">
      <path
         inkscape:connector-curvature="0"
         id="path881-5"
         d="m -7.2048075,288.53333 h 8.5480764 v -5.29166"
         style="fill:none;fill-opacity:1;fill-rule:evenodd;stroke:#000000;stroke-width:0.8237133;stroke-linecap:round;stroke-linejoin:round;stroke-miterlimit:4;stroke-dasharray:none;stroke-opacity:0.39639641;paint-order:fill markers stroke;filter:url(#filter1459)"
         sodipodi:nodetypes="ccc" />
    </g>
    <rect
       style="opacity:1;fill:#f7de20;fill-opacity:1;fill-rule:nonzero;stroke:none;stroke-width:0.79374999;stroke-linecap:round;stroke-linejoin:round;stroke-miterlimit:4;stroke-dasharray:none;stroke-opacity:0.96846846;paint-order:fill markers stroke"
       id="rect990"
       width="7.4083333"
       height="5.0270834"
       x="3.96875"
       y="285.35834" />
    <path
       inkscape:connector-curvature="0"
       id="path881-5-4"
       d="m 4.7624999,289.85625 h 6.0854171 v -3.43958"
       style="opacity:0.8;fill:none;fill-opacity:1;fill-rule:evenodd;stroke:url(#linearGradient1055);stroke-width:0.84137499;stroke-linecap:butt;stroke-linejoin:round;stroke-miterlimit:4;stroke-dasharray:none;stroke-opacity:0.47297297;paint-order:fill markers stroke;filter:url(#filter1263)"
       sodipodi:nodetypes="ccc" />
    <path
       inkscape:connector-curvature="0"
       id="path881-5-4-3"
       d="M 11.1125,286.15208 H 4.4979166 v 3.70417"
       style="opacity:1;fill:none;fill-opacity:1;fill-rule:evenodd;stroke:url(#linearGradient1073);stroke-width:0.84142995;stroke-linecap:square;stroke-linejoin:round;stroke-miterlimit:4;stroke-dasharray:none;stroke-opacity:0.36936939;paint-order:fill markers stroke;filter:url(#filter1299)"
       sodipodi:nodetypes="ccc" />
    <path
       sodipodi:nodetypes="ccc"
       inkscape:connector-curvature="0"
       id="path883-6"
       d="m 5.0270833,287.21042 2.6458333,1.5875 2.6458334,-1.5875"
       style="opacity:0.7;fill:none;fill-rule:evenodd;stroke:url(#linearGradient1045);stroke-width:0.79374999;stroke-linecap:round;stroke-linejoin:round;stroke-miterlimit:4;stroke-dasharray:none;stroke-opacity:0.33333333;filter:url(#filter1339)" />
    <path
       sodipodi:nodetypes="ccc"
       inkscape:connector-curvature="0"
       id="path883-6-7"
       d="m 5.8208333,286.41667 1.8520833,1.05833 1.8520833,-1.05833"
       style="fill:none;fill-rule:evenodd;stroke:url(#linearGradient1229);stroke-width:0.79374999;stroke-linecap:round;stroke-linejoin:round;stroke-miterlimit:4;stroke-dasharray:none;stroke-opacity:0.33333333" />
    <path
       style="fill:none;fill-opacity:1;fill-rule:evenodd;stroke:url(#linearGradient1620);stroke-width:1.05833328;stroke-linecap:round;stroke-linejoin:round;stroke-miterlimit:4;stroke-dasharray:none;stroke-opacity:0.46846846;filter:url(#filter1658);opacity:0.7"
       d="m 3.3639881,285.13155 c 0,0 -2.87261919,-0.22771 -2.8962427,2.2962 -0.0236235,2.52391 0.0236235,5.87753 0.0236235,5.87753 0,1.50813 1.9513021,1.63475 1.9513021,1.63475 l 0.018483,1.61033 1.243013,-0.0795"
       id="path817-6"
       inkscape:connector-curvature="0"
       sodipodi:nodetypes="czzccc" />
    <g
       id="g887"
       transform="matrix(0.92857148,0,0,1,0.34017837,0)">
      <path
         inkscape:connector-curvature="0"
         id="path881"
         d="m 3.7041666,285.35833 c 0,4.23334 0,5.29167 0,5.29167 h 8.4666664 v -5.29167 z"
         style="fill:none;fill-opacity:1;fill-rule:evenodd;stroke:#272727;stroke-width:1.09828436;stroke-linecap:butt;stroke-linejoin:round;stroke-miterlimit:4;stroke-dasharray:none;stroke-opacity:1;paint-order:fill markers stroke" />
      <path
         sodipodi:nodetypes="ccc"
         inkscape:connector-curvature="0"
         id="path883"
         d="m 4.477564,286.15208 3.4599359,1.85209 3.6634611,-1.85209"
         style="fill:none;fill-rule:evenodd;stroke:#242424;stroke-width:1.09828436;stroke-linecap:round;stroke-linejoin:round;stroke-miterlimit:4;stroke-dasharray:none;stroke-opacity:1" />
    </g>
    <path
       style="fill:none;fill-opacity:1;fill-rule:evenodd;stroke:#00076a;stroke-width:1.05833328;stroke-linecap:round;stroke-linejoin:round;stroke-miterlimit:4;stroke-dasharray:none;stroke-opacity:1"
       d="m 2.6789063,285.8875 c 0,0 -1.620573,0.0794 -1.620573,1.5875 v 5.02708 c 0,1.50813 2.1166667,1.5875 2.1166667,1.5875 l -10e-8,1.85209 3.4395833,-1.85209 c 0,0 1.4221351,-1e-5 2.9104167,0 1.4882811,0 1.5875001,-1.41551 1.5875001,-1.41551 v -0.43657"
       id="path817"
       inkscape:connector-curvature="0"
       sodipodi:nodetypes="czzccczcc" />
  </g>
</svg>
